{
  "info": {
    "subdir": "linux-armv7l"
  },
  "packages": {
    "anaconda-docs-2.0.18-hb3a96d1_0.tar.bz2": {
      "build": "hb3a96d1_0",
      "build_number": 0,
      "depends": [],
      "md5": "a49bf1f6da154b12bfd8e29383e47bfb",
      "name": "anaconda-docs",
      "sha256": "e536766d81ab27ecb9fdadfd85b946e7031ee813b3c827efefd195a1463a005c",
      "size": 71346100,
      "subdir": "linux-armv7l",
      "timestamp": 1510870072425,
      "version": "2.0.18"
    },
    "anaconda-docs-2.0.19-hb3a96d1_0.tar.bz2": {
      "build": "hb3a96d1_0",
      "build_number": 0,
      "depends": [],
      "md5": "3f27d0b430990e7bb53a392bda9cfd3e",
      "name": "anaconda-docs",
      "sha256": "9522a886fe33db7d0ede97a0d03cd7f55a7204d694730412a80b6e816c269892",
      "size": 79443837,
      "subdir": "linux-armv7l",
      "timestamp": 1512077805825,
      "version": "2.0.19"
    },
    "anaconda-docs-2.0.20-0.tar.bz2": {
      "build": "0",
      "build_number": 0,
      "depends": [],
      "md5": "4bb9aef797ce3cd4495c655bad475b6c",
      "name": "anaconda-docs",
      "sha256": "24f534a4ec50f2a62758655b07ea0800fb0ef7c0fa0692f0e417de6d885f4ff2",
      "size": 67708122,
      "subdir": "linux-armv7l",
      "timestamp": 1513628344280,
      "version": "2.0.20"
    },
    "anaconda-docs-2.0.21-0.tar.bz2": {
      "build": "0",
      "build_number": 0,
      "depends": [],
      "md5": "c0884694fdc5364ae6e4903717ddd527",
      "name": "anaconda-docs",
      "sha256": "da89a3094dcb2cf398560f449151dbfd79e3426210005081964fee0fff920a6d",
      "size": 75873900,
      "subdir": "linux-armv7l",
      "timestamp": 1516911564970,
      "version": "2.0.21"
    },
    "anaconda-docs-2.0.22-0.tar.bz2": {
      "build": "0",
      "build_number": 0,
      "depends": [],
      "md5": "b9a5e3d62a45eda6242225106b0eb3f0",
      "name": "anaconda-docs",
      "sha256": "c36122499954ee80614f9d59a82be17b52eb518b5473e2211e10255dd918c882",
      "size": 75907598,
      "subdir": "linux-armv7l",
      "timestamp": 1518115447238,
      "version": "2.0.22"
    },
    "anaconda-docs-2.0.23-0.tar.bz2": {
      "build": "0",
      "build_number": 0,
      "depends": [],
      "md5": "c32cc846798c973d54e6da73d6d12f3a",
      "name": "anaconda-docs",
      "sha256": "ab01c16f5f62e53e1d852bd62799f2b9ec9e645c40e85fc2e6bb2920cc94054f",
      "size": 86983239,
      "subdir": "linux-armv7l",
      "timestamp": 1520636361902,
      "version": "2.0.23"
    },
    "anaconda-oss-docs-1.0.1-0.tar.bz2": {
      "build": "0",
      "build_number": 0,
      "depends": [],
      "md5": "4d1ecb86481c67bc6450e69e80719c74",
      "name": "anaconda-oss-docs",
      "sha256": "ee8b95879c49fcfc27d6ec0cff3f84d6c9df63fede946bcf27cdcefa88e080ab",
      "size": 258682132,
      "subdir": "linux-armv7l",
      "timestamp": 1516913566172,
      "version": "1.0.1"
    },
    "anaconda-oss-docs-1.0.2-0.tar.bz2": {
      "build": "0",
      "build_number": 0,
      "depends": [],
      "md5": "d822704b2d7ba1afbbd672d92923bf1e",
      "name": "anaconda-oss-docs",
      "sha256": "213f78dcbe3badf4aef7c9dc48faf9c94bedbb158a291cc667c7e7c8a8990670",
      "size": 299841348,
      "subdir": "linux-armv7l",
      "timestamp": 1520632294339,
      "version": "1.0.2"
    }
  },
  "packages.conda": {},
  "removed": [],
  "repodata_version": 1
}
